…
q_lls_rpn(year=2023, species=20510, area='ai', by='fmpsubarea', 
                      use_historical=FALSE, db=con, print_sql=FALSE, save=FALSE) %>%
  dplyr::select(year, council_management_area, species_code,rpn)
#> sablefish rpns:
#> 
#>             -are corrected for sperm whale depredation and area summaries 
#> 
#>             -only include data from depth strata 3-7 (201-1000 m) 
#> 
#>             -use interpolated bs/ai values in alternating survey years when aggregated to the fmp or ak-wide level 
#> 
#>             -assume fixed rpn/rpw data in the ai (1990-1995) and bs (1990-1996) when no bs/ai surveys occurred
#> 
#>             -assume fixed ak-wide rpn/rpws from 1979-1994 for the historical Japanese survey
#> # A tibble: 34 × 4
#>     year council_management_area species_code     rpn
#>    <dbl> <chr>                          <dbl>   <dbl>
#>  1  1990 Aleutians                      20510  77131.
#>  2  1991 Aleutians                      20510  74442.
#>  3  1992 Aleutians                      20510  50952.
#>  4  1993 Aleutians                      20510  78040.
#>  5  1994 Aleutians                      20510  56139.
#>  6  1995 Aleutians                      20510  57474.
#>  7  1996 Aleutians                      20510  57517 
#>  8  1997 Aleutians                      20510  55385 
#>  9  1998 Aleutians                      20510  98842.
#> 10  1999 Aleutians                      20510 108722.
#> # ℹ 24 more rows
```
…
